Annual update - UPC
…
Relief bar chart

`summarise()` has regrouped the output.
ℹ Summaries were computed grouped by YEAR, SITE, ZONE, and transect_id.
ℹ Output is grouped by YEAR, SITE, and ZONE.
ℹ Use `summarise(.groups = "drop_last")` to silence this message.
ℹ Use `summarise(.by = c(YEAR, SITE, ZONE, transect_id))` for per-operation
  grouping (`?dplyr::dplyr_by`) instead.

# A tibble: 637 × 5
# Groups:   YEAR, SITE, ZONE [89]
    YEAR SITE        ZONE transect_id              SUM
   <int> <chr>      <int> <chr>                  <int>
 1  2016 Cape Alava     5 2016_Cape Alava_1_5_1     30
 2  2016 Cape Alava     5 2016_Cape Alava_1_5_2     30
 3  2016 Cape Alava     5 2016_Cape Alava_1_5_3     30
 4  2016 Cape Alava     5 2016_Cape Alava_1_5_4     30
 5  2016 Cape Alava     5 2016_Cape Alava_1_5_5     30
 6  2016 Cape Alava     5 2016_Cape Alava_1_5_6     30
 7  2016 Cape Alava    10 2016_Cape Alava_1_10_1    30
 8  2016 Cape Alava    10 2016_Cape Alava_1_10_2    30
 9  2016 Cape Alava    10 2016_Cape Alava_1_10_3    30
10  2016 Cape Alava    10 2016_Cape Alava_1_10_4    30
# ℹ 627 more rows
…
